
Bit to byte     |0 1 2 3 4 5 6 7|8 9 0 1 2 3 4 5|6 7 8 9 0 1 2 3|4 5 6 7 8 9 0 1|
                |---------------|---------------|---------------|---------------|
                
                ________________________________________________________________
                |_______0_______|_______1_______|_______2_______|_______3_______|
                |_._._._._______._._____________|_______________________________|
                |F|R|R|R| opcode|M| Payload len |    Extended payload length    |
                |I|S|S|S|  (4)  |A|     (7)     |             (16/64)           |
                |N|V|V|V|       |S|             |   (if payload len==126/127)   |
                | |1|2|3|       |K|             |                               |
                |_^_^_^_^_______^_^_____________|_______________________________|

                ._______________________________________________________________.
                |_______4_______|_______5_______|_______6_______|_______7_______|
                |     Extended payload length continued, if payload len == 127  |
                |_______________________________|_______________________________|

                ._______________________________________________________________.
                |_______8_______|_______9_______|______10_______|______11_______|
                | if payload len == 127 etc.    |Masking-key, if MASK set to 1  |
                |_______________________________|_______________________________|

                ._______________________________________________________________.
                |_______12______|_______13______|_______14______|_______15______|
                | Masking-key (continued)       |          Payload Data         |
                |_______________________________________________________________|

                ._______________________________________________________________
                |                     Payload Data continued ...                |
                |_______________________________________________________________|
                |                     Payload Data continued ...                |
                |_______________________________________________________________|

Payload length info requires 7bit or 16bit or 24bit
MASK-Key requires 32bit
1000 1010 0000 0000

   WebSocket Opcode numbers are subject to the "Standards Action" IANA
   registration policy [RFC5226].

   IANA has added initial values to the registry as follows.

     |Opcode  | Meaning                             | Reference |
    -+--------+-------------------------------------+-----------|
     | 0      | Continuation Frame                  | RFC 6455  |
    -+--------+-------------------------------------+-----------|
     | 1      | Text Frame                          | RFC 6455  |
    -+--------+-------------------------------------+-----------|
     | 2      | Binary Frame                        | RFC 6455  |
    -+--------+-------------------------------------+-----------|
     | 8      | Connection Close Frame              | RFC 6455  |
    -+--------+-------------------------------------+-----------|
     | 9      | Ping Frame                          | RFC 6455  |
    -+--------+-------------------------------------+-----------|
     | 10     | Pong Frame                          | RFC 6455  |
    -+--------+-------------------------------------+-----------|



[10]|       <==HEX==>         Bites
________________________________________________
000 |       <== 00 ==> |     0 0 0 0 <=> 0 0 0 0

001 |       <== 01 ==> |     0 0 0 0 <=> 0 0 0 1

002 |       <== 02 ==> |     0 0 0 0 <=> 0 0 1 0

003 |       <== 03 ==> |     0 0 0 0 <=> 0 0 1 1

004 |       <== 04 ==> |     0 0 0 0 <=> 0 1 0 0

005 |       <== 05 ==> |     0 0 0 0 <=> 0 1 0 1

006 |       <== 06 ==> |     0 0 0 0 <=> 0 1 1 0

007 |       <== 07 ==> |     0 0 0 0 <=> 0 1 1 1

008 |       <== 08 ==> |     0 0 0 0 <=> 1 0 0 0

009 |       <== 09 ==> |     0 0 0 0 <=> 1 0 0 1

010 |       <== 0A ==> |     0 0 0 0 <=> 1 0 1 0

011 |       <== 0B ==> |     0 0 0 0 <=> 1 0 1 1

012 |       <== 0C ==> |     0 0 0 0 <=> 1 1 0 0

013 |       <== 0D ==> |     0 0 0 0 <=> 1 1 0 1

014 |       <== 0E ==> |     0 0 0 0 <=> 1 1 1 0

015 |       <== 0F ==> |     0 0 0 0 <=> 1 1 1 1



016 |       <== 10 ==> |     0 0 0 1 <=> 0 0 0 0

017 |       <== 11 ==> |     0 0 0 1 <=> 0 0 0 1
